[
{
    "_id" : "6062a8eb834de22e84600edd",
    "userId" : "507f1f77bcf86cd799439011",
    "courseId" : "601ccbe89bcd482ee8fa2c99",
    "ispaid" : true,
    "paymentMethod" : "Paypal",
    "dateTimeEnrolled" : "2020-03-15T15:00:00.00Z" 
}


{
    "_id" : "603e10d3b30fd23b081a94eb",
    "userId" : "507f1f77bcf86cd799439011",
    "courseId" : "507f191e810c19729de860ea",
    "ispaid" : true,
    "paymentMethod" : "Amerucan Express - Credit",
    "dateTimeEnrolled" : "2020-03-15T15:00:00.00Z" 
}

